{
    "prepare_queue": {
        "installed": [],
        "uninstalled": []
    },
    "config_munge": {
        "files": {
            "framework": {
                "parents": {
                    "CoreLocation.framework": [],
                    "libsqlite3.dylib": [],
                    "Social.framework": [],
                    "Accounts.framework": [],
                    "Security.framework": [],
                    "CoreGraphics.framework": [
                        {
                            "xml": false,
                            "count": 1
                        }
                    ]
                }
            },
            "config.xml": {
                "parents": {
                    "/*": [
                        {
                            "xml": "<feature name=\"InAppBrowser\"><param name=\"ios-package\" value=\"CDVInAppBrowser\" /></feature>",
                            "count": 1
                        }
                    ]
                }
            },
            "*-Info.plist": {
                "parents": {
                    "NSLocationWhenInUseUsageDescription": [],
                    "FacebookAppID": [],
                    "FacebookDisplayName": [],
                    "CFBundleURLTypes": []
                }
            }
        }
    },
    "installed_plugins": {
        "cordova-plugin-whitelist": {
            "PACKAGE_NAME": "com.harrispartners.phonegap.tracker"
        },
        "org.apache.cordova.inappbrowser": {
            "PACKAGE_NAME": "com.harrispartners.phonegap.tracker"
        }
    },
    "dependent_plugins": {}
}